<?xml version="1.0" standalone="no"?>
<!DOCTYPE svg PUBLIC "-//W3C//DTD SVG 20010904//EN"
 "http://www.w3.org/TR/2001/REC-SVG-20010904/DTD/svg10.dtd">
<svg version="1.0" xmlns="http://www.w3.org/2000/svg"
 width="200.000000pt" height="200.000000pt" viewBox="0 0 200.000000 200.000000"
 preserveAspectRatio="xMidYMid meet">
<metadata>
Created by potrace 1.14, written by Peter Selinger 2001-2017
</metadata>
<g transform="translate(0.000000,200.000000) scale(0.100000,-0.100000)"
fill="#000000" stroke="none">
<path d="M1000 1810 c0 -6 -6 -10 -12 -8 -7 1 -37 -1 -66 -5 -53 -8 -107 -41
-96 -59 4 -6 -8 -24 -24 -41 -17 -18 -38 -49 -47 -69 -8 -21 -18 -38 -21 -38
-3 0 -2 6 2 13 4 6 3 8 -1 4 -5 -4 -8 -25 -6 -45 2 -28 -3 -43 -18 -56 -18
-17 -21 -30 -20 -105 1 -47 3 -78 6 -68 7 28 23 20 23 -12 0 -17 4 -32 9 -36
5 -3 13 -31 17 -63 8 -53 8 -55 14 -22 6 35 6 34 13 -15 3 -27 2 -68 -3 -90
-5 -22 -10 -58 -10 -80 -1 -33 -3 -36 -10 -19 -13 34 -25 36 -50 9 -13 -14
-27 -25 -32 -25 -5 0 -30 -22 -56 -48 -26 -26 -69 -61 -96 -76 l-49 -29 42
-25 c23 -13 39 -27 37 -30 -3 -3 -12 0 -20 7 -26 22 -74 31 -86 16 -8 -10 -7
-16 7 -24 12 -7 13 -10 4 -11 -9 0 -11 -8 -7 -25 4 -14 2 -25 -4 -25 -14 0
-13 -13 2 -33 12 -16 20 -14 96 24 45 23 84 40 86 38 3 -4 75 -191 90 -232 5
-17 11 -15 71 16 75 40 67 50 71 -88 5 -151 22 -400 29 -418 6 -15 24 -17 155
-17 102 0 151 4 156 12 10 15 23 191 30 391 4 92 10 167 14 167 4 0 31 -16 60
-36 28 -19 53 -34 55 -32 1 2 22 57 46 123 23 66 46 124 50 128 9 11 63 -17
116 -60 l42 -34 20 40 c30 58 28 64 -22 57 -30 -5 -48 -2 -62 8 -11 9 -33 16
-50 16 l-30 1 29 16 c21 11 34 13 45 6 9 -5 34 -8 55 -5 l39 5 -33 13 c-18 8
-41 14 -51 14 -11 0 -19 5 -19 10 0 6 -13 10 -30 10 -18 0 -42 11 -62 28 -18
16 -48 39 -66 51 -24 17 -32 29 -29 42 5 19 -7 25 -56 33 -35 5 -38 20 -22 96
10 46 13 92 9 124 -7 55 3 58 17 4 6 -25 7 -20 3 22 l-5 55 20 -32 c27 -43 33
-42 26 5 -5 28 -4 33 5 22 8 -11 9 0 5 45 -3 33 -7 79 -9 102 -2 23 -10 53
-18 65 -7 13 -19 35 -25 50 -10 23 -10 26 3 21 14 -5 14 -2 0 26 -9 17 -13 31
-10 31 4 0 -3 11 -16 25 -13 14 -20 25 -16 25 5 0 2 7 -5 17 -13 15 -12 15 10
4 14 -8 19 -16 13 -20 -7 -4 2 -17 23 -34 19 -15 35 -23 35 -18 0 5 -11 18
-25 29 -13 11 -22 22 -19 25 3 2 -14 20 -38 40 -60 48 -109 72 -92 45 5 -8 2
-9 -12 -3 -10 4 -29 8 -42 9 -13 1 -28 9 -33 19 -11 18 -69 24 -69 7z m163
-72 c5 -19 5 -19 -14 -2 -22 20 -25 36 -5 28 8 -3 16 -14 19 -26z m-440 -280
c-6 -35 -11 -44 -17 -37 -7 8 6 69 15 69 5 0 6 -15 2 -32z m57 -102 c-1 -29
-1 -30 -15 -12 -20 26 -20 57 0 50 9 -4 15 -19 15 -38z m-39 -53 c-9 -15 -10
-13 -11 13 0 17 3 34 8 38 11 12 14 -32 3 -51z m529 -11 c0 -15 -2 -15 -10 -2
-13 20 -13 33 0 25 6 -3 10 -14 10 -23z m-120 -47 c-14 -16 -40 -20 -40 -6 0
10 17 19 39 20 11 1 11 -2 1 -14z m-235 -5 c3 -5 -1 -10 -9 -10 -9 0 -16 5
-16 10 0 6 4 10 9 10 6 0 13 -4 16 -10z m-113 -160 c3 -16 1 -35 -4 -42 -4 -8
-8 4 -8 30 0 49 6 55 12 12z m429 -43 c-6 -15 -15 -27 -21 -27 -6 0 -9 4 -6 9
3 4 11 21 17 37 6 16 13 24 16 18 2 -6 -1 -23 -6 -37z"/>
<path d="M739 1673 c-13 -16 -12 -17 4 -4 16 13 21 21 13 21 -2 0 -10 -8 -17
-17z"/>
<path d="M1351 1454 c0 -11 3 -14 6 -6 3 7 2 16 -1 19 -3 4 -6 -2 -5 -13z"/>
<path d="M727 1213 c-4 -3 -7 -11 -7 -17 0 -6 5 -5 12 2 6 6 9 14 7 17 -3 3
-9 2 -12 -2z"/>
<path d="M168 615 c-11 -13 -24 -22 -28 -20 -16 10 -53 -103 -61 -186 -7 -73
-14 -96 -44 -147 -34 -58 -35 -64 -35 -161 l0 -101 160 0 c149 0 160 1 170 20
14 26 40 26 40 0 0 -18 7 -20 70 -20 39 0 70 2 70 5 0 3 -18 23 -40 44 -39 36
-54 81 -28 81 7 0 41 -29 75 -65 l62 -65 116 0 115 0 -6 28 c-6 27 -26 114
-60 255 -10 42 -22 77 -27 77 -11 0 -67 -59 -67 -71 0 -36 -43 34 -90 149 -13
28 -26 52 -29 52 -4 0 -25 -15 -48 -34 -36 -32 -42 -34 -64 -22 -13 7 -43 23
-67 36 -56 29 -93 65 -126 123 -15 26 -30 47 -32 47 -2 0 -14 -11 -26 -25z
m-37 -232 c-9 -15 -10 -13 -11 13 0 17 3 47 8 65 7 33 7 33 10 -13 2 -26 -2
-56 -7 -65z"/>
<path d="M1780 518 c-24 -18 -71 -49 -104 -70 l-61 -36 -33 39 c-19 21 -37 39
-40 39 -4 0 -16 -21 -26 -48 -37 -92 -79 -173 -85 -165 -4 4 -20 25 -35 46
-16 21 -32 35 -36 30 -4 -4 -17 -57 -30 -118 -12 -60 -30 -138 -40 -172 l-17
-63 168 0 c101 0 170 4 174 10 3 6 1 10 -4 10 -6 0 -11 17 -11 38 0 31 4 38
20 38 11 0 20 -7 21 -16 0 -10 2 -11 6 -2 7 17 21 15 26 -5 4 -16 5 -16 6 -1
1 13 12 17 56 17 47 0 55 -3 55 -19 0 -10 3 -25 6 -34 5 -12 0 -16 -19 -16
-19 0 -27 6 -30 22 l-4 23 -2 -22 c-1 -20 -6 -23 -48 -23 -35 0 -44 -3 -33
-10 8 -5 88 -10 178 -10 l162 0 0 43 c0 23 -9 66 -20 95 -11 29 -20 60 -20 70
0 10 -11 34 -25 53 -24 31 -25 40 -19 95 7 73 0 104 -26 104 -13 0 -27 15 -43
45 l-23 45 -44 -32z m91 -161 c-6 -8 -8 -16 -5 -19 3 -3 -7 -15 -22 -27 -32
-25 -37 -23 -28 13 4 17 12 25 20 22 7 -3 18 2 24 10 7 8 15 14 17 14 3 0 0
-6 -6 -13z m107 -300 l3 -37 -63 2 c-35 0 -48 3 -30 5 27 4 32 8 31 31 l-1 27
-8 -25 c-7 -23 -8 -23 -9 -3 -1 12 -7 23 -13 26 -7 2 -1 4 15 4 27 0 31 -6 28
-39 -1 -10 3 -18 9 -18 8 0 11 13 8 35 -3 28 -1 35 11 33 10 -2 17 -16 19 -41z
m-116 8 c-6 -32 -12 -32 -12 0 0 14 4 25 9 25 4 0 6 -11 3 -25z m28 -4 c0 -6
-4 -13 -10 -16 -5 -3 -10 1 -10 9 0 9 5 16 10 16 6 0 10 -4 10 -9z m-400 -36
c-7 -8 -17 -15 -23 -15 -5 0 -2 9 8 20 21 23 35 19 15 -5z"/>
<path d="M1962 55 c0 -16 2 -22 5 -12 2 9 2 23 0 30 -3 6 -5 -1 -5 -18z"/>
<path d="M1765 70 c3 -5 8 -10 11 -10 2 0 4 5 4 10 0 6 -5 10 -11 10 -5 0 -7
-4 -4 -10z"/>
</g>
</svg>
